{
    "_id": "5dff6e111456970316674a16",
    "tags": [
        "avionic"
    ],
    "icon": "icons/en/conic_nozzle_(vidar).ff5f23593d0850514dd7b63c3a16d8c9.png",
    "thumb": "icons/en/thumbs/conic_nozzle_(vidar).ff5f23593d0850514dd7b63c3a16d8c9.128x128.png",
    "icon_format": "port",
    "url_name": "conic_nozzle_(vidar)",
    "tradable": true,
    "en": {
        "item_name": "Conic Nozzle (Vidar)",
        "description": "A Integrated Avionics that increases (base) Speed",
        "wiki_link": "https://warframe.fandom.com/wiki/Avionics#Conic_Nozzle",
        "drop": [
            {
                "name": "Kosma Cutter",
                "link": null
            },
            {
                "name": "Elite Exo Taktis",
                "link": null
            },
            {
                "name": "Gyre Flak",
                "link": null
            },
            {
                "name": "Gyre Taktis",
                "link": null
            },
            {
                "name": "Elite Gyre Taktis",
                "link": null
            }
        ]
    },
    "ru": {
        "item_name": "Conic Nozzle (Vidar)",
        "description": "A Integrated Avionics that increases (base) Speed",
        "wiki_link": "https://warframe.fandom.com/wiki/Avionics#Conic_Nozzle",
        "drop": [
            {
                "name": "Kosma Cutter",
                "link": null
            },
            {
                "name": "Elite Exo Taktis",
                "link": null
            },
            {
                "name": "Gyre Flak",
                "link": null
            },
            {
                "name": "Gyre Taktis",
                "link": null
            },
            {
                "name": "Elite Gyre Taktis",
                "link": null
            }
        ]
    },
    "ko": {
        "item_name": "Conic Nozzle (Vidar)",
        "description": "A Integrated Avionics that increases (base) Speed",
        "wiki_link": "https://warframe.fandom.com/wiki/Avionics#Conic_Nozzle",
        "drop": [
            {
                "name": "Kosma Cutter",
                "link": null
            },
            {
                "name": "Elite Exo Taktis",
                "link": null
            },
            {
                "name": "Gyre Flak",
                "link": null
            },
            {
                "name": "Gyre Taktis",
                "link": null
            },
            {
                "name": "Elite Gyre Taktis",
                "link": null
            }
        ]
    },
    "mod_max_rank": 1
}