{
    "_id": "5dff6e111456970316674a17",
    "tags": [
        "avionic"
    ],
    "icon": "icons/en/warhead_(zetki).ff5f23593d0850514dd7b63c3a16d8c9.png",
    "thumb": "icons/en/thumbs/warhead_(zetki).ff5f23593d0850514dd7b63c3a16d8c9.128x128.png",
    "icon_format": "port",
    "url_name": "warhead_(zetki)",
    "tradable": true,
    "en": {
        "item_name": "Warhead (Zetki)",
        "description": "A Integrated Avionics that increases Ordnance damage.  Drops from Kosma Flak (1.106%) and Gyre Outrider (2.211% + 0.101%).  This avionic is listed twice under the Gyre Outrider's drop table.",
        "wiki_link": "https://warframe.fandom.com/wiki/Avionics#Warhead",
        "drop": [
            {
                "name": "Kosma Flak",
                "link": null
            },
            {
                "name": "Gyre Outrider",
                "link": null
            },
            {
                "name": "Gyre Outrider",
                "link": null
            }
        ]
    },
    "ru": {
        "item_name": "Warhead (Zetki)",
        "description": "A Integrated Avionics that increases Ordnance damage.  Drops from Kosma Flak (1.106%) and Gyre Outrider (2.211% + 0.101%).  This avionic is listed twice under the Gyre Outrider's drop table.",
        "wiki_link": "https://warframe.fandom.com/wiki/Avionics#Warhead",
        "drop": [
            {
                "name": "Kosma Flak",
                "link": null
            },
            {
                "name": "Gyre Outrider",
                "link": null
            },
            {
                "name": "Gyre Outrider",
                "link": null
            }
        ]
    },
    "ko": {
        "item_name": "Warhead (Zetki)",
        "description": "A Integrated Avionics that increases Ordnance damage.  Drops from Kosma Flak (1.106%) and Gyre Outrider (2.211% + 0.101%).  This avionic is listed twice under the Gyre Outrider's drop table.",
        "wiki_link": "https://warframe.fandom.com/wiki/Avionics#Warhead",
        "drop": [
            {
                "name": "Kosma Flak",
                "link": null
            },
            {
                "name": "Gyre Outrider",
                "link": null
            },
            {
                "name": "Gyre Outrider",
                "link": null
            }
        ]
    },
    "mod_max_rank": 7
}