{
    "_id": "5e6248fc7d76f2c26d1b7c69",
    "url_name": "always_hungry",
    "en": {
        "item_name": "Always Hungry",
        "description": "Talks about getting a snack after appearing on a mission"
    },
    "ru": {
        "item_name": "Always Hungry",
        "description": "Talks about getting a snack after appearing on a mission"
    },
    "ko": {
        "item_name": "Always Hungry",
        "description": "Talks about getting a snack after appearing on a mission"
    }
}