{
    "_id": "5e6248fc7d76f2c26d1b7c6b",
    "url_name": "loner",
    "en": {
        "item_name": "Loner",
        "description": "Talks about preferring to fight alone"
    },
    "ru": {
        "item_name": "Loner",
        "description": "Talks about preferring to fight alone"
    },
    "ko": {
        "item_name": "Loner",
        "description": "Talks about preferring to fight alone"
    }
}