{
    "_id": "5e623ffb7d76f2651c72c911",
    "url_name": "vengeful_flame",
    "icon": "icons/en/vengeful_flame.1c2faa83c219e6d6699524495b578d7f.png",
    "thumb": "icons/en/thumbs/vengeful_flame.1c2faa83c219e6d6699524495b578d7f.128x128.png",
    "icon_format": "port",
    "animation": "animations/vengeful_flame.9d819d5e4f54c25551b3e8cfa9f9a002.gif",
    "animation_format": "land",
    "element": "heat",
    "en": {
        "item_name": "Vengeful Flame",
        "wiki_link": "https://warframe.fandom.com/wiki/Kuva_Lich#Ephemera"
    },
    "ru": {
        "item_name": "Vengeful Flame",
        "wiki_link": "https://warframe.fandom.com/wiki/Kuva_Lich#Ephemera"
    },
    "ko": {
        "item_name": "Vengeful Flame",
        "wiki_link": "https://warframe.fandom.com/wiki/Kuva_Lich#Ephemera"
    }
}